<mxfile host="app.diagrams.net" modified="2020-11-25T17:19:22.019Z" agent="5.0 (Macintosh; Intel Mac OS X 10_13_6) AppleWebKit/537.36 (KHTML, like Gecko) Chrome/86.0.4240.183 Safari/537.36" etag="4RUkNTgoMzCzjNByFqgW" version="13.9.0" type="gitlab">
  <diagram id="hOIVZ2l5Hk1kpVh5i6RW" name="Page-1">
    <mxGraphModel dx="960" dy="547" grid="1" gridSize="10" guides="1" tooltips="1" connect="1" arrows="1" fold="1" page="1" pageScale="1" pageWidth="827" pageHeight="1169" math="0" shadow="0">
      <root>
        <mxCell id="0" />
        <mxCell id="1" parent="0" />
        <mxCell id="WZOj1MJulxr0bYsjXHP1-1" value="Service" style="shape=folder;fontStyle=1;spacingTop=10;tabWidth=40;tabHeight=14;tabPosition=left;html=1;" parent="1" vertex="1">
          <mxGeometry x="320" y="260" width="70" height="50" as="geometry" />
        </mxCell>
        <mxCell id="WZOj1MJulxr0bYsjXHP1-2" value="Factory" style="shape=folder;fontStyle=1;spacingTop=10;tabWidth=40;tabHeight=14;tabPosition=left;html=1;" parent="1" vertex="1">
          <mxGeometry x="320" y="410" width="70" height="50" as="geometry" />
        </mxCell>
        <mxCell id="WZOj1MJulxr0bYsjXHP1-3" value="API" style="shape=folder;fontStyle=1;spacingTop=10;tabWidth=40;tabHeight=14;tabPosition=left;html=1;" parent="1" vertex="1">
          <mxGeometry x="440" y="350" width="70" height="50" as="geometry" />
        </mxCell>
        <mxCell id="WZOj1MJulxr0bYsjXHP1-4" value="DAO" style="shape=folder;fontStyle=1;spacingTop=10;tabWidth=40;tabHeight=14;tabPosition=left;html=1;" parent="1" vertex="1">
          <mxGeometry x="200" y="350" width="70" height="50" as="geometry" />
        </mxCell>
        <mxCell id="WZOj1MJulxr0bYsjXHP1-5" value="Business&lt;br&gt;Objects" style="shape=folder;fontStyle=1;spacingTop=10;tabWidth=40;tabHeight=14;tabPosition=left;html=1;" parent="1" vertex="1">
          <mxGeometry x="320" y="500" width="70" height="50" as="geometry" />
        </mxCell>
        <mxCell id="WZOj1MJulxr0bYsjXHP1-6" value="View" style="shape=folder;fontStyle=1;spacingTop=10;tabWidth=40;tabHeight=14;tabPosition=left;html=1;" parent="1" vertex="1">
          <mxGeometry x="320" y="160" width="70" height="50" as="geometry" />
        </mxCell>
        <mxCell id="WZOj1MJulxr0bYsjXHP1-14" value="" style="endArrow=block;dashed=1;endFill=0;endSize=12;html=1;exitX=0;exitY=0;exitDx=55;exitDy=14;exitPerimeter=0;entryX=0;entryY=0;entryDx=0;entryDy=50;entryPerimeter=0;" parent="1" source="WZOj1MJulxr0bYsjXHP1-4" edge="1" target="WZOj1MJulxr0bYsjXHP1-1">
          <mxGeometry width="160" relative="1" as="geometry">
            <mxPoint x="330" y="420" as="sourcePoint" />
            <mxPoint x="338" y="300" as="targetPoint" />
          </mxGeometry>
        </mxCell>
        <mxCell id="WZOj1MJulxr0bYsjXHP1-15" value="" style="endArrow=block;dashed=1;endFill=0;endSize=12;html=1;exitX=0;exitY=0;exitDx=70;exitDy=32;exitPerimeter=0;" parent="1" source="WZOj1MJulxr0bYsjXHP1-2" target="WZOj1MJulxr0bYsjXHP1-3" edge="1">
          <mxGeometry width="160" relative="1" as="geometry">
            <mxPoint x="330" y="420" as="sourcePoint" />
            <mxPoint x="490" y="420" as="targetPoint" />
          </mxGeometry>
        </mxCell>
        <mxCell id="WZOj1MJulxr0bYsjXHP1-16" value="" style="endArrow=block;dashed=1;endFill=0;endSize=12;html=1;exitX=0;exitY=0;exitDx=0;exitDy=0;exitPerimeter=0;entryX=0;entryY=0;entryDx=70;entryDy=50;entryPerimeter=0;" parent="1" source="WZOj1MJulxr0bYsjXHP1-3" target="WZOj1MJulxr0bYsjXHP1-1" edge="1">
          <mxGeometry width="160" relative="1" as="geometry">
            <mxPoint x="330" y="420" as="sourcePoint" />
            <mxPoint x="490" y="420" as="targetPoint" />
          </mxGeometry>
        </mxCell>
        <mxCell id="WZOj1MJulxr0bYsjXHP1-17" value="" style="endArrow=block;dashed=1;endFill=0;endSize=12;html=1;exitX=0.671;exitY=0.28;exitDx=0;exitDy=0;exitPerimeter=0;entryX=0.657;entryY=1.02;entryDx=0;entryDy=0;entryPerimeter=0;" parent="1" source="WZOj1MJulxr0bYsjXHP1-5" target="WZOj1MJulxr0bYsjXHP1-2" edge="1">
          <mxGeometry width="160" relative="1" as="geometry">
            <mxPoint x="330" y="420" as="sourcePoint" />
            <mxPoint x="490" y="420" as="targetPoint" />
          </mxGeometry>
        </mxCell>
        <mxCell id="WZOj1MJulxr0bYsjXHP1-20" value="" style="endArrow=block;dashed=1;endFill=0;endSize=12;html=1;exitX=0;exitY=0;exitDx=40;exitDy=14;exitPerimeter=0;" parent="1" source="WZOj1MJulxr0bYsjXHP1-1" target="WZOj1MJulxr0bYsjXHP1-6" edge="1">
          <mxGeometry width="160" relative="1" as="geometry">
            <mxPoint x="330" y="420" as="sourcePoint" />
            <mxPoint x="362" y="194" as="targetPoint" />
          </mxGeometry>
        </mxCell>
        <mxCell id="WZOj1MJulxr0bYsjXHP1-24" value="" style="endArrow=block;dashed=1;endFill=0;endSize=12;html=1;exitX=0;exitY=0;exitDx=0;exitDy=32;exitPerimeter=0;entryX=0;entryY=0;entryDx=70;entryDy=50;entryPerimeter=0;" parent="1" source="WZOj1MJulxr0bYsjXHP1-2" target="WZOj1MJulxr0bYsjXHP1-4" edge="1">
          <mxGeometry width="160" relative="1" as="geometry">
            <mxPoint x="380" y="460" as="sourcePoint" />
            <mxPoint x="280" y="400" as="targetPoint" />
            <Array as="points" />
          </mxGeometry>
        </mxCell>
      </root>
    </mxGraphModel>
  </diagram>
</mxfile>
